examples/TinyALU_reg/dump.vcd
$version Generated by VerilatedVcd $end
$timescale 1ps $end

 $scope module top $end
  $var wire  8 # A [7:0] $end
  $var wire  8 $ B [7:0] $end
  $var wire 32 + addr [31:0] $end
  $var wire  1 ' clk $end
  $var wire  3 % op [2:0] $end
  $var wire 32 . rdata [31:0] $end
  $var wire  1 * read $end
  $var wire  1 ( reset_n $end
  $var wire 16 / result [15:0] $end
  $var wire  1 & start $end
  $var wire  1 ) valid $end
  $var wire 32 , wdata [31:0] $end
  $var wire  4 - wmask [3:0] $end
  $scope module tinyalu $end
   $var wire  8 0 A [7:0] $end
   $var wire 32 N! ADDR_OFFSET [31:0] $end
   $var wire 32 M! ADDR_WIDTH [31:0] $end
   $var wire  8 1 B [7:0] $end
   $var wire  5 H CMD_op_q [4:0] $end
   $var wire  5 D CMD_op_wdata [4:0] $end
   $var wire  1 C CMD_op_we $end
   $var wire  7 G CMD_reserved_q [6:0] $end
   $var wire  7 F CMD_reserved_wdata [6:0] $end
   $var wire  1 E CMD_reserved_we $end
   $var wire  1 I CMD_start_q [0:0] $end
   $var wire 32 M! DATA_WIDTH [31:0] $end
   $var wire 32 O! RESERVED_VALUE [31:0] $end
   $var wire 16 L RESULT_data_wdata [15:0] $end
   $var wire  8 J SRC_data0_q [7:0] $end
   $var wire  8 K SRC_data1_q [7:0] $end
   $var wire 32 8 addr [31:0] $end
   $var wire  1 4 clk $end
   $var wire  1 M done $end
   $var wire  1 A done_aax $end
   $var wire  1 B done_mult $end
   $var wire  3 2 op [2:0] $end
   $var wire  3 N op_from_rf [2:0] $end
   $var wire 32 ; rdata [31:0] $end
   $var wire  1 7 read $end
   $var wire  1 5 reset_n $end
   $var wire 16 < result [15:0] $end
   $var wire 16 = result_aax [15:0] $end
   $var wire 16 > result_mult [15:0] $end
   $var wire  1 3 start $end
   $var wire  1 @ start_mult $end
   $var wire  1 ? start_single $end
   $var wire  1 6 valid $end
   $var wire 32 9 wdata [31:0] $end
   $var wire  4 : wmask [3:0] $end
   $scope module and_add_xor $end
    $var wire  8 O A [7:0] $end
    $var wire  8 P B [7:0] $end
    $var wire  1 R clk $end
    $var wire  1 U done $end
    $var wire  3 Q op [2:0] $end
    $var wire  1 S reset_n $end
    $var wire 16 V result [15:0] $end
    $var wire  1 T start $end
   $upscope $end
   $scope module mult $end
    $var wire  8 W A [7:0] $end
    $var wire  8 X B [7:0] $end
    $var wire  8 _ a_int [7:0] $end
    $var wire  8 ` b_int [7:0] $end
    $var wire  1 Z clk $end
    $var wire  1 ] done $end
    $var wire  1 c done1 $end
    $var wire  1 d done2 $end
    $var wire  1 e done3 $end
    $var wire 16 a mult1 [15:0] $end
    $var wire 16 b mult2 [15:0] $end
    $var wire  3 Y op [2:0] $end
    $var wire  1 [ reset_n $end
    $var wire 16 ^ result [15:0] $end
    $var wire  1 \ start $end
   $upscope $end
   $scope module regblock $end
    $var wire 32 N! ADDR_OFFSET [31:0] $end
    $var wire 32 M! ADDR_WIDTH [31:0] $end
    $var wire  1 H! CMD_decode $end
    $var wire  1 /! CMD_done_anded $end
    $var wire  1 .! CMD_done_next [0:0] $end
    $var wire  1 0! CMD_done_ored $end
    $var wire  1 -! CMD_done_q [0:0] $end
    $var wire  1 m CMD_done_wdata [0:0] $end
    $var wire  1 1! CMD_done_xored $end
    $var wire  1 &! CMD_op_anded $end
    $var wire  5 %! CMD_op_next [4:0] $end
    $var wire  1 '! CMD_op_ored $end
    $var wire  5 k CMD_op_q [4:0] $end
    $var wire  1 (! CMD_op_xored $end
    $var wire 32 K! CMD_q [31:0] $end
    $var wire 32 ?! CMD_rdata [31:0] $end
    $var wire  1 4! CMD_reserved_anded $end
    $var wire  9 3! CMD_reserved_next [8:0] $end
    $var wire  1 5! CMD_reserved_ored $end
    $var wire  9 2! CMD_reserved_q [8:0] $end
    $var wire  9 o CMD_reserved_wdata [8:0] $end
    $var wire  1 n CMD_reserved_we $end
    $var wire  1 6! CMD_reserved_xored $end
    $var wire  1 *! CMD_start_anded $end
    $var wire  1 )! CMD_start_next [0:0] $end
    $var wire  1 +! CMD_start_ored $end
    $var wire  1 l CMD_start_q [0:0] $end
    $var wire  1 ,! CMD_start_xored $end
    $var wire  1 J! CMD_sw_rd $end
    $var wire  1 I! CMD_sw_wr $end
    $var wire 32 M! DATA_WIDTH [31:0] $end
    $var wire  1 "! RESULT_data_anded $end
    $var wire 16 !! RESULT_data_next [15:0] $end
    $var wire  1 #! RESULT_data_ored $end
    $var wire 16 ~ RESULT_data_q [15:0] $end
    $var wire 16 j RESULT_data_wdata [15:0] $end
    $var wire  1 $! RESULT_data_xored $end
    $var wire  1 D! RESULT_decode $end
    $var wire 32 G! RESULT_q [31:0] $end
    $var wire 32 >! RESULT_rdata [31:0] $end
    $var wire  1 F! RESULT_sw_rd $end
    $var wire  1 E! RESULT_sw_wr $end
    $var wire  1 w SRC_data0_anded $end
    $var wire  8 v SRC_data0_next [7:0] $end
    $var wire  1 x SRC_data0_ored $end
    $var wire  8 h SRC_data0_q [7:0] $end
    $var wire  1 y SRC_data0_xored $end
    $var wire  1 { SRC_data1_anded $end
    $var wire  8 z SRC_data1_next [7:0] $end
    $var wire  1 | SRC_data1_ored $end
    $var wire  8 i SRC_data1_q [7:0] $end
    $var wire  1 } SRC_data1_xored $end
    $var wire  1 @! SRC_decode $end
    $var wire 32 C! SRC_q [31:0] $end
    $var wire 32 =! SRC_rdata [31:0] $end
    $var wire  1 B! SRC_sw_rd $end
    $var wire  1 A! SRC_sw_wr $end
    $var wire 32 r addr [31:0] $end
    $var wire  1 f clk $end
    $var wire 32 u rdata [31:0] $end
    $var wire  1 q read $end
    $var wire  1 g resetn $end
    $var wire 32 9! sw_mask [31:0] $end
    $var wire 32 <! sw_masked_data [31:0] $end
    $var wire  1 8! sw_rd $end
    $var wire 32 ;! sw_rdata [31:0] $end
    $var wire 32 :! sw_wdata [31:0] $end
    $var wire  1 7! sw_wr $end
    $var wire  1 p valid $end
    $var wire 32 s wdata [31:0] $end
    $var wire  4 t wmask [3:0] $end
    $scope module unnamedblk1 $end
     $var wire 32 L! byte_idx [31:0] $end
    $upscope $end
   $upscope $end
  $upscope $end
 $upscope $end
$enddefinitions $end


#0
b00000000 #
b00000000 $
b000 %
0&
1'
1(
0)
0*
b00000000000000000000000000000000 +
b00000000000000000000000000000000 ,
b0000 -
b00000000000000000000000000000000 .
b0000000000000000 /
b00000000 0
b00000000 1
b000 2
03
14
15
06
07
b00000000000000000000000000000000 8
b00000000000000000000000000000000 9
b0000 :
b00000000000000000000000000000000 ;
b0000000000000000 <
b0000000000000000 =
b0000000000000000 >
0?
0@
0A
0B
0C
b00000 D
0E
b0000000 F
b0000000 G
b00000 H
0I
b00000000 J
b00000000 K
b0000000000000000 L
0M
b000 N
b00000000 O
b00000000 P
b000 Q
1R
1S
0T
0U
b0000000000000000 V
b00000000 W
b00000000 X
b000 Y
1Z
1[
0\
0]
b0000000000000000 ^
b00000000 _
b00000000 `
b0000000000000000 a
b0000000000000000 b
0c
0d
0e
1f
1g
b00000000 h
b00000000 i
b0000000000000000 j
b00000 k
0l
0m
1n
b000000000 o
0p
0q
b00000000000000000000000000000000 r
b00000000000000000000000000000000 s
b0000 t
b00000000000000000000000000000000 u
b00000000 v
0w
0x
0y
b00000000 z
0{
0|
0}
b0000000000000000 ~
b0000000000000000 !!
0"!
0#!
0$!
b00000 %!
0&!
0'!
0(!
0)!
0*!
0+!
0,!
0-!
0.!
0/!
00!
01!
b000000000 2!
b000000000 3!
04!
05!
06!
07!
08!
b00000000000000000000000000000000 9!
b00000000000000000000000000000000 :!
b00000000000000000000000000000000 ;!
b00000000000000000000000000000000 <!
b00000000000000000000000000000000 =!
b00000000000000000000000000000000 >!
b00000000000000000000000000000000 ?!
1@!
0A!
0B!
b00000000000000000000000000000000 C!
0D!
0E!
0F!
b00000000000000000000000000000000 G!
0H!
0I!
0J!
b00000000000000000000000000000000 K!
b00000000000000000000000000000100 L!
b00000000000000000000000000100000 M!
b00000000000000000000000000000000 N!
b00000000000000000000000000000001 O!
#500
0'
04
0R
0Z
0f
#1000
1'
14
1R
1Z
1f
#1500
0'
1)
b00000000000000000000000000000100 +
b1111 -
04
16
b00000000000000000000000000000100 8
b1111 :
0R
0Z
0f
1p
b00000000000000000000000000000100 r
b1111 t
17!
b11111111111111111111111111111111 9!
0@!
1H!
1I!
#2000
1'
14
1R
1Z
1f
#2500
0'
0)
04
06
0R
0Z
0f
0p
07!
0I!
#3000
1'
14
1R
1Z
1f
#3500
0'
1)
b00000000000000000000000000000000 +
b00000000000000000001111010110011 ,
04
16
b00000000000000000000000000000000 8
b00000000000000000001111010110011 9
0R
0Z
0f
1p
b00000000000000000000000000000000 r
b00000000000000000001111010110011 s
17!
b00000000000000000001111010110011 :!
b00000000000000000001111010110011 <!
1@!
1A!
0H!
#4000
1'
14
b10110011 J
b00011110 K
b10110011 O
b00011110 P
1R
b10110011 W
b00011110 X
1Z
1f
b10110011 h
b00011110 i
1x
1y
1|
b00000000000000000001111010110011 C!
#4500
0'
0)
04
06
0R
0Z
0f
0p
07!
0A!
#5000
1'
b1011001100011110 /
14
b1011001100011110 <
b1011001100011110 =
1R
b1011001100011110 V
1Z
b10110011 _
b00011110 `
1f
b1011001100011110 j
b1011001100011110 ~
b1011001100011110 !!
1#!
1$!
b00000000000000001011001100011110 G!
#5500
0'
1)
b00000000000000000000000000000100 +
b00000000000000000000000000100001 ,
04
16
b00000000000000000000000000000100 8
b00000000000000000000000000100001 9
0R
0Z
0f
1p
b00000000000000000000000000000100 r
b00000000000000000000000000100001 s
17!
b00000000000000000000000000100001 :!
b00000000000000000000000000100001 <!
0@!
1H!
1I!
#6000
1'
14
1?
b00001 H
1I
b001 N
b001 Q
1R
1T
b001 Y
1Z
b0001010011111010 a
1f
b00001 k
1l
1'!
1(!
1*!
1+!
1,!
b00000000000000000000000000100001 K!
#6500
0'
0)
04
06
0R
0Z
0f
0p
07!
0I!
#7000
1'
b0000000011010001 /
14
b0000000011010001 <
b0000000011010001 =
1A
1M
1R
1U
b0000000011010001 V
1Z
b0001010011111010 b
1f
b0000000011010001 j
1m
b0000000011010001 ~
b0000000011010001 !!
0$!
1-!
1.!
1/!
10!
11!
b00000000000000000000000011010001 G!
b00000000000000000000000001100001 K!
#7500
0'
1)
1*
b00000000000000000000000001100001 .
04
16
17
b00000000000000000000000001100001 ;
0R
0Z
0f
1p
1q
b00000000000000000000000001100001 u
18!
b00000000000000000000000001100001 ;!
b00000000000000000000000001100001 ?!
1J!
#8000
1'
14
b0001010011111010 >
1R
1Z
b0001010011111010 ^
1f
#8500
0'
0)
b00000000000000000000000000000000 .
04
06
b00000000000000000000000000000000 ;
0R
0Z
0f
0p
b00000000000000000000000000000000 u
08!
b00000000000000000000000000000000 ;!
b00000000000000000000000000000000 ?!
0J!
#9000
1'
14
1R
1Z
1f
#9500
0'
1)
b00000000000000000000000000000010 +
b00000000000000000000000011010001 .
04
16
b00000000000000000000000000000010 8
b00000000000000000000000011010001 ;
0R
0Z
0f
1p
b00000000000000000000000000000010 r
b00000000000000000000000011010001 u
18!
b00000000000000000000000011010001 ;!
b00000000000000000000000011010001 >!
1D!
1F!
0H!
#10000
1'
14
1R
1Z
1f
#10500
0'
0)
b00000000000000000000000000000000 .
04
06
b00000000000000000000000000000000 ;
0R
0Z
0f
0p
b00000000000000000000000000000000 u
08!
b00000000000000000000000000000000 ;!
b00000000000000000000000000000000 >!
0F!
#11000
1'
14
1R
1Z
1f
#11500
0'
1)
0*
b00000000000000000000000000000100 +
b00000000000000000000000000000000 ,
04
16
07
b00000000000000000000000000000100 8
b00000000000000000000000000000000 9
0R
0Z
0f
1p
0q
b00000000000000000000000000000100 r
b00000000000000000000000000000000 s
17!
b00000000000000000000000000000000 :!
b00000000000000000000000000000000 <!
0D!
1H!
1I!
#12000
1'
14
0?
b00000 H
0I
b000 N
b000 Q
1R
0T
b000 Y
1Z
1f
b00000 k
0l
0'!
0(!
0*!
0+!
0,!
b00000000000000000000000001000000 K!
#12500
0'
0)
04
06
0R
0Z
0f
0p
07!
0I!
#13000
1'
b1011001100011110 /
14
b1011001100011110 <
b1011001100011110 =
0A
0M
1R
0U
b1011001100011110 V
1Z
1f
b1011001100011110 j
0m
b1011001100011110 ~
b1011001100011110 !!
1$!
0-!
0.!
0/!
00!
01!
b00000000000000001011001100011110 G!
b00000000000000000000000000000000 K!
#13500
0'
1)
b00000000000000000000000000000000 +
b00000000000000001001001000001100 ,
04
16
b00000000000000000000000000000000 8
b00000000000000001001001000001100 9
0R
0Z
0f
1p
b00000000000000000000000000000000 r
b00000000000000001001001000001100 s
17!
b00000000000000001001001000001100 :!
b00000000000000001001001000001100 <!
1@!
1A!
0H!
#14000
1'
14
b00001100 J
b10010010 K
b00001100 O
b10010010 P
1R
b00001100 W
b10010010 X
1Z
1f
b00001100 h
b10010010 i
0y
1}
b00000000000000001001001000001100 C!
#14500
0'
0)
04
06
0R
0Z
0f
0p
07!
0A!
#15000
1'
b0000110010010010 /
14
b0000110010010010 <
b0000110010010010 =
1R
b0000110010010010 V
1Z
b00001100 _
b10010010 `
1f
b0000110010010010 j
b0000110010010010 ~
b0000110010010010 !!
b00000000000000000000110010010010 G!
#15500
0'
1)
b00000000000000000000000000000100 +
b00000000000000000000000000100010 ,
04
16
b00000000000000000000000000000100 8
b00000000000000000000000000100010 9
0R
0Z
0f
1p
b00000000000000000000000000000100 r
b00000000000000000000000000100010 s
17!
b00000000000000000000000000100010 :!
b00000000000000000000000000100010 <!
0@!
1H!
1I!
#16000
1'
14
1?
b00010 H
1I
b010 N
b010 Q
1R
1T
b010 Y
1Z
b0000011011011000 a
1f
b00010 k
1l
1'!
1(!
1*!
1+!
1,!
b00000000000000000000000000100010 K!
#16500
0'
0)
04
06
0R
0Z
0f
0p
07!
0I!
#17000
1'
b0000000000000000 /
14
b0000000000000000 <
b0000000000000000 =
1A
1M
1R
1U
b0000000000000000 V
1Z
b0000011011011000 b
1f
b0000000000000000 j
1m
b0000000000000000 ~
b0000000000000000 !!
0#!
0$!
1-!
1.!
1/!
10!
11!
b00000000000000000000000000000000 G!
b00000000000000000000000001100010 K!
#17500
0'
1)
1*
b00000000000000000000000001100010 .
04
16
17
b00000000000000000000000001100010 ;
0R
0Z
0f
1p
1q
b00000000000000000000000001100010 u
18!
b00000000000000000000000001100010 ;!
b00000000000000000000000001100010 ?!
1J!
#18000
1'
14
b0000011011011000 >
1R
1Z
b0000011011011000 ^
1f
#18500
0'
0)
b00000000000000000000000000000000 .
04
06
b00000000000000000000000000000000 ;
0R
0Z
0f
0p
b00000000000000000000000000000000 u
08!
b00000000000000000000000000000000 ;!
b00000000000000000000000000000000 ?!
0J!
#19000
1'
14
1R
1Z
1f
#19500
0'
1)
b00000000000000000000000000000010 +
04
16
b00000000000000000000000000000010 8
0R
0Z
0f
1p
b00000000000000000000000000000010 r
18!
1D!
1F!
0H!
#20000
1'
14
1R
1Z
1f
#20500
0'
0)
04
06
0R
0Z
0f
0p
08!
0F!
#21000
1'
14
1R
1Z
1f
#21500
0'
1)
0*
b00000000000000000000000000000100 +
b00000000000000000000000000000000 ,
04
16
07
b00000000000000000000000000000100 8
b00000000000000000000000000000000 9
0R
0Z
0f
1p
0q
b00000000000000000000000000000100 r
b00000000000000000000000000000000 s
17!
b00000000000000000000000000000000 :!
b00000000000000000000000000000000 <!
0D!
1H!
1I!
#22000
1'
14
0?
b00000 H
0I
b000 N
b000 Q
1R
0T
b000 Y
1Z
1f
b00000 k
0l
0'!
0(!
0*!
0+!
0,!
b00000000000000000000000001000000 K!
#22500
0'
0)
04
06
0R
0Z
0f
0p
07!
0I!
#23000
1'
b0000110010010010 /
14
b0000110010010010 <
b0000110010010010 =
0A
0M
1R
0U
b0000110010010010 V
1Z
1f
b0000110010010010 j
0m
b0000110010010010 ~
b0000110010010010 !!
1#!
1$!
0-!
0.!
0/!
00!
01!
b00000000000000000000110010010010 G!
b00000000000000000000000000000000 K!
#23500
0'
1)
b00000000000000000000000000000000 +
b00000000000000001111111000011111 ,
04
16
b00000000000000000000000000000000 8
b00000000000000001111111000011111 9
0R
0Z
0f
1p
b00000000000000000000000000000000 r
b00000000000000001111111000011111 s
17!
b00000000000000001111111000011111 :!
b00000000000000001111111000011111 <!
1@!
1A!
0H!
#24000
1'
14
b00011111 J
b11111110 K
b00011111 O
b11111110 P
1R
b00011111 W
b11111110 X
1Z
1f
b00011111 h
b11111110 i
1y
b00000000000000001111111000011111 C!
#24500
0'
0)
04
06
0R
0Z
0f
0p
07!
0A!
#25000
1'
b0001111111111110 /
14
b0001111111111110 <
b0001111111111110 =
1R
b0001111111111110 V
1Z
b00011111 _
b11111110 `
1f
b0001111111111110 j
b0001111111111110 ~
b0001111111111110 !!
0$!
b00000000000000000001111111111110 G!
#25500
0'
1)
b00000000000000000000000000000100 +
b00000000000000000000000000100011 ,
04
16
b00000000000000000000000000000100 8
b00000000000000000000000000100011 9
0R
0Z
0f
1p
b00000000000000000000000000000100 r
b00000000000000000000000000100011 s
17!
b00000000000000000000000000100011 :!
b00000000000000000000000000100011 <!
0@!
1H!
1I!
#26000
1'
14
1?
b00011 H
1I
b011 N
b011 Q
1R
1T
b011 Y
1Z
b0001111011000010 a
1f
b00011 k
1l
1'!
1*!
1+!
1,!
b00000000000000000000000000100011 K!
#26500
0'
0)
04
06
0R
0Z
0f
0p
07!
0I!
#27000
1'
b0000000011100001 /
14
b0000000011100001 <
b0000000011100001 =
1A
1M
1R
1U
b0000000011100001 V
1Z
b0001111011000010 b
1f
b0000000011100001 j
1m
b0000000011100001 ~
b0000000011100001 !!
1-!
1.!
1/!
10!
11!
b00000000000000000000000011100001 G!
b00000000000000000000000001100011 K!
#27500
0'
1)
1*
b00000000000000000000000001100011 .
04
16
17
b00000000000000000000000001100011 ;
0R
0Z
0f
1p
1q
b00000000000000000000000001100011 u
18!
b00000000000000000000000001100011 ;!
b00000000000000000000000001100011 ?!
1J!
#28000
1'
14
b0001111011000010 >
1R
1Z
b0001111011000010 ^
1f
#28500
0'
0)
b00000000000000000000000000000000 .
04
06
b00000000000000000000000000000000 ;
0R
0Z
0f
0p
b00000000000000000000000000000000 u
08!
b00000000000000000000000000000000 ;!
b00000000000000000000000000000000 ?!
0J!
#29000
1'
14
1R
1Z
1f
#29500
0'
1)
b00000000000000000000000000000010 +
b00000000000000000000000011100001 .
04
16
b00000000000000000000000000000010 8
b00000000000000000000000011100001 ;
0R
0Z
0f
1p
b00000000000000000000000000000010 r
b00000000000000000000000011100001 u
18!
b00000000000000000000000011100001 ;!
b00000000000000000000000011100001 >!
1D!
1F!
0H!
#30000
1'
14
1R
1Z
1f
#30500
0'
0)
b00000000000000000000000000000000 .
04
06
b00000000000000000000000000000000 ;
0R
0Z
0f
0p
b00000000000000000000000000000000 u
08!
b00000000000000000000000000000000 ;!
b00000000000000000000000000000000 >!
0F!
#31000
1'
14
1R
1Z
1f
#31500
0'
1)
0*
b00000000000000000000000000000100 +
b00000000000000000000000000000000 ,
04
16
07
b00000000000000000000000000000100 8
b00000000000000000000000000000000 9
0R
0Z
0f
1p
0q
b00000000000000000000000000000100 r
b00000000000000000000000000000000 s
17!
b00000000000000000000000000000000 :!
b00000000000000000000000000000000 <!
0D!
1H!
1I!
#32000
1'
14
0?
b00000 H
0I
b000 N
b000 Q
1R
0T
b000 Y
1Z
1f
b00000 k
0l
0'!
0*!
0+!
0,!
b00000000000000000000000001000000 K!
#32500
0'
0)
04
06
0R
0Z
0f
0p
07!
0I!
#33000
1'
b0001111111111110 /
14
b0001111111111110 <
b0001111111111110 =
0A
0M
1R
0U
b0001111111111110 V
1Z
1f
b0001111111111110 j
0m
b0001111111111110 ~
b0001111111111110 !!
0-!
0.!
0/!
00!
01!
b00000000000000000001111111111110 G!
b00000000000000000000000000000000 K!
#33500
0'
1)
b00000000000000000000000000000000 +
b00000000000000000100010000101110 ,
04
16
b00000000000000000000000000000000 8
b00000000000000000100010000101110 9
0R
0Z
0f
1p
b00000000000000000000000000000000 r
b00000000000000000100010000101110 s
17!
b00000000000000000100010000101110 :!
b00000000000000000100010000101110 <!
1@!
1A!
0H!
#34000
1'
14
b00101110 J
b01000100 K
b00101110 O
b01000100 P
1R
b00101110 W
b01000100 X
1Z
1f
b00101110 h
b01000100 i
0y
0}
b00000000000000000100010000101110 C!
#34500
0'
0)
04
06
0R
0Z
0f
0p
07!
0A!
#35000
1'
b0010111001000100 /
14
b0010111001000100 <
b0010111001000100 =
1R
b0010111001000100 V
1Z
b00101110 _
b01000100 `
1f
b0010111001000100 j
b0010111001000100 ~
b0010111001000100 !!
b00000000000000000010111001000100 G!
#35500
0'
1)
b00000000000000000000000000000100 +
b00000000000000000000000000100100 ,
04
16
b00000000000000000000000000000100 8
b00000000000000000000000000100100 9
0R
0Z
0f
1p
b00000000000000000000000000000100 r
b00000000000000000000000000100100 s
17!
b00000000000000000000000000100100 :!
b00000000000000000000000000100100 <!
0@!
1H!
1I!
#36000
1'
b0001111011000010 /
14
b0001111011000010 <
1@
b00100 H
1I
b100 N
b100 Q
1R
b100 Y
1Z
1\
b0000110000111000 a
1f
b0001111011000010 j
b00100 k
1l
b0001111011000010 ~
b0001111011000010 !!
1$!
1'!
1(!
1*!
1+!
1,!
b00000000000000000001111011000010 G!
b00000000000000000000000000100100 K!
#36500
0'
0)
04
06
0R
0Z
0f
0p
07!
0I!
#37000
1'
14
1R
1Z
b0000110000111000 b
1e
1f
#37500
0'
1)
1*
b00000000000000000000000000100100 .
04
16
17
b00000000000000000000000000100100 ;
0R
0Z
0f
1p
1q
b00000000000000000000000000100100 u
18!
b00000000000000000000000000100100 ;!
b00000000000000000000000000100100 ?!
1J!
#38000
1'
b0000110000111000 /
14
b0000110000111000 <
b0000110000111000 >
1R
1Z
b0000110000111000 ^
1d
1f
b0000110000111000 j
b0000110000111000 ~
b0000110000111000 !!
b00000000000000000000110000111000 G!
#38500
0'
0)
b00000000000000000000000000000000 .
04
06
b00000000000000000000000000000000 ;
0R
0Z
0f
0p
b00000000000000000000000000000000 u
08!
b00000000000000000000000000000000 ;!
b00000000000000000000000000000000 ?!
0J!
#39000
1'
14
1R
1Z
1c
1f
#39500
0'
1)
b00000000000000000000000000100100 .
04
16
b00000000000000000000000000100100 ;
0R
0Z
0f
1p
b00000000000000000000000000100100 u
18!
b00000000000000000000000000100100 ;!
b00000000000000000000000000100100 ?!
1J!
#40000
1'
b00000000000000000000000001100100 .
14
b00000000000000000000000001100100 ;
1B
1M
1R
1Z
1]
1f
1m
b00000000000000000000000001100100 u
1-!
1.!
1/!
10!
11!
b00000000000000000000000001100100 ;!
b00000000000000000000000001100100 ?!
b00000000000000000000000001100100 K!
#40500
0'
0)
b00000000000000000000000000000000 .
04
06
b00000000000000000000000000000000 ;
0R
0Z
0f
0p
b00000000000000000000000000000000 u
08!
b00000000000000000000000000000000 ;!
b00000000000000000000000000000000 ?!
0J!
#41000
1'
14
0B
0M
1R
1Z
0]
0c
0d
0e
1f
0m
0-!
0.!
0/!
00!
01!
b00000000000000000000000000100100 K!
#41500
0'
1)
b00000000000000000000000000000010 +
b00000000000000000000110000111000 .
04
16
b00000000000000000000000000000010 8
b00000000000000000000110000111000 ;
0R
0Z
0f
1p
b00000000000000000000000000000010 r
b00000000000000000000110000111000 u
18!
b00000000000000000000110000111000 ;!
b00000000000000000000110000111000 >!
1D!
1F!
0H!
#42000
1'
14
1R
1Z
1e
1f
#42500
0'
04
0R
0Z
0f
#42501
1'
b00000000000000000000000000000000 .
b0000000000000000 /
14
b00000000000000000000000000000000 ;
b0000000000000000 <
b0000000000000000 =
b0000000000000000 >
0@
b00000 H
0I
b00000000 J
b00000000 K
b000 N
b00000000 O
b00000000 P
b000 Q
1R
b0000000000000000 V
b00000000 W
b00000000 X
b000 Y
1Z
0\
b0000000000000000 ^
b00000000 _
b00000000 `
b0000000000000000 a
b0000000000000000 b
0e
1f
b00000000 h
b00000000 i
b0000000000000000 j
b00000 k
0l
b00000000000000000000000000000000 u
0x
0|
b0000000000000000 ~
b0000000000000000 !!
0#!
0$!
0'!
0(!
0*!
0+!
0,!
b00000000000000000000000000000000 ;!
b00000000000000000000000000000000 >!
b00000000000000000000000000000000 C!
b00000000000000000000000000000000 G!
b00000000000000000000000000000000 K!
#43000
#43001
0'
04
0R
0Z
0f
#43501
1'
14
1R
1Z
1f
#44001
0'
0*
b00000000000000000000000000000100 +
b00000000000000000000000000000000 ,
04
07
b00000000000000000000000000000100 8
b00000000000000000000000000000000 9
0R
0Z
0f
0q
b00000000000000000000000000000100 r
b00000000000000000000000000000000 s
17!
08!
b00000000000000000000000000000000 :!
b00000000000000000000000000000000 <!
0D!
0F!
1H!
1I!
#44501
1'
14
1R
1Z
1f
#45001
0'
0)
04
06
0R
0Z
0f
0p
07!
0I!
#45501
1'
14
1R
1Z
1f
#46001
0'
1)
b00000000000000000000000000000000 +
b00000000000000000000000100000000 ,
04
16
b00000000000000000000000000000000 8
b00000000000000000000000100000000 9
0R
0Z
0f
1p
b00000000000000000000000000000000 r
b00000000000000000000000100000000 s
17!
b00000000000000000000000100000000 :!
b00000000000000000000000100000000 <!
1@!
1A!
0H!
#46501
1'
14
b00000001 K
b00000001 P
1R
b00000001 X
1Z
1f
b00000001 i
1|
1}
b00000000000000000000000100000000 C!
#47001
0'
0)
04
06
0R
0Z
0f
0p
07!
0A!
#47501
1'
b0000000000000001 /
14
b0000000000000001 <
b0000000000000001 =
1R
b0000000000000001 V
1Z
b00000001 `
1f
b0000000000000001 j
b0000000000000001 ~
b0000000000000001 !!
1#!
1$!
b00000000000000000000000000000001 G!
#48001
0'
1)
b00000000000000000000000000000100 +
b00000000000000000000000000100001 ,
04
16
b00000000000000000000000000000100 8
b00000000000000000000000000100001 9
0R
0Z
0f
1p
b00000000000000000000000000000100 r
b00000000000000000000000000100001 s
17!
b00000000000000000000000000100001 :!
b00000000000000000000000000100001 <!
0@!
1H!
1I!
#48501
1'
14
1?
b00001 H
1I
b001 N
b001 Q
1R
1T
b001 Y
1Z
1f
b00001 k
1l
1'!
1(!
1*!
1+!
1,!
b00000000000000000000000000100001 K!
#49001
0'
0)
04
06
0R
0Z
0f
0p
07!
0I!
#49501
1'
14
1A
1M
1R
1U
1Z
1f
1m
1-!
1.!
1/!
10!
11!
b00000000000000000000000001100001 K!
#50001
0'
1)
1*
b00000000000000000000000001100001 .
04
16
17
b00000000000000000000000001100001 ;
0R
0Z
0f
1p
1q
b00000000000000000000000001100001 u
18!
b00000000000000000000000001100001 ;!
b00000000000000000000000001100001 ?!
1J!
#50501
1'
14
1R
1Z
1f
#51001
0'
0)
b00000000000000000000000000000000 .
04
06
b00000000000000000000000000000000 ;
0R
0Z
0f
0p
b00000000000000000000000000000000 u
08!
b00000000000000000000000000000000 ;!
b00000000000000000000000000000000 ?!
0J!
#51501
1'
14
1R
1Z
1f
#52001
0'
1)
b00000000000000000000000000000010 +
b00000000000000000000000000000001 .
04
16
b00000000000000000000000000000010 8
b00000000000000000000000000000001 ;
0R
0Z
0f
1p
b00000000000000000000000000000010 r
b00000000000000000000000000000001 u
18!
b00000000000000000000000000000001 ;!
b00000000000000000000000000000001 >!
1D!
1F!
0H!
#52501
1'
14
1R
1Z
1f
#53001
0'
0)
b00000000000000000000000000000000 .
04
06
b00000000000000000000000000000000 ;
0R
0Z
0f
0p
b00000000000000000000000000000000 u
08!
b00000000000000000000000000000000 ;!
b00000000000000000000000000000000 >!
0F!
#53501
1'
14
1R
1Z
1f
#54001
0'
1)
0*
b00000000000000000000000000000100 +
b00000000000000000000000000000000 ,
04
16
07
b00000000000000000000000000000100 8
b00000000000000000000000000000000 9
0R
0Z
0f
1p
0q
b00000000000000000000000000000100 r
b00000000000000000000000000000000 s
17!
b00000000000000000000000000000000 :!
b00000000000000000000000000000000 <!
0D!
1H!
1I!
#54501
1'
14
0?
b00000 H
0I
b000 N
b000 Q
1R
0T
b000 Y
1Z
1f
b00000 k
0l
0'!
0(!
0*!
0+!
0,!
b00000000000000000000000001000000 K!
#55001
0'
0)
04
06
0R
0Z
0f
0p
07!
0I!
#55501
1'
14
0A
0M
1R
0U
1Z
1f
0m
0-!
0.!
0/!
00!
01!
b00000000000000000000000000000000 K!
#56001
0'
1)
b00000000000000000000000000000000 +
b00000000000000000000000100000001 ,
04
16
b00000000000000000000000000000000 8
b00000000000000000000000100000001 9
0R
0Z
0f
1p
b00000000000000000000000000000000 r
b00000000000000000000000100000001 s
17!
b00000000000000000000000100000001 :!
b00000000000000000000000100000001 <!
1@!
1A!
0H!
#56501
1'
14
b00000001 J
b00000001 O
1R
b00000001 W
1Z
1f
b00000001 h
1x
1y
b00000000000000000000000100000001 C!
#57001
0'
0)
04
06
0R
0Z
0f
0p
07!
0A!
#57501
1'
b0000000100000001 /
14
b0000000100000001 <
b0000000100000001 =
1R
b0000000100000001 V
1Z
b00000001 _
1f
b0000000100000001 j
b0000000100000001 ~
b0000000100000001 !!
0$!
b00000000000000000000000100000001 G!
#58001
0'
1)
b00000000000000000000000000000100 +
b00000000000000000000000000100001 ,
04
16
b00000000000000000000000000000100 8
b00000000000000000000000000100001 9
0R
0Z
0f
1p
b00000000000000000000000000000100 r
b00000000000000000000000000100001 s
17!
b00000000000000000000000000100001 :!
b00000000000000000000000000100001 <!
0@!
1H!
1I!
#58501
1'
14
1?
b00001 H
1I
b001 N
b001 Q
1R
1T
b001 Y
1Z
b0000000000000001 a
1f
b00001 k
1l
1'!
1(!
1*!
1+!
1,!
b00000000000000000000000000100001 K!
#59001
0'
0)
04
06
0R
0Z
0f
0p
07!
0I!
